,plate,number,M NaCl,Strain,mM PQ
0,20150702 PQ 6,17,,ura3,0.0
1,20150702 PQ 6,84,,ura3,0.083
2,20150702 PQ 6,18,,ura3,0.0
3,20150702 PQ 6,77,,ura3,0.083
4,20150702 PQ 6,80,,ura3,0.083
5,20150702 PQ 6,76,,ura3,0.083
6,20150702 PQ 6,23,,ura3,0.0
7,20150702 PQ 6,85,,ura3,0.083
8,20150702 PQ 6,19,,ura3,0.0
9,20150702 PQ 6,24,,ura3,0.0
10,20150702 PQ 6,75,,ura3,0.083
11,20150702 PQ 6,22,,ura3,0.0
12,20150702 PQ 6,79,,ura3,0.083
13,20150702 PQ 6,25,,ura3,0.0
14,20150702 PQ 6,83,,ura3,0.083
15,20150702 PQ 6,20,,ura3,0.0
16,20150702 PQ 6,78,,ura3,0.083
17,20150702 PQ 6,82,,ura3,0.083
18,20150702 PQ 6,21,,ura3,0.0
19,20150702 PQ 6,81,,ura3,0.083
20,20150702 PQ 6,74,,ura3,0.083
21,20150702 PQ 6,16,,ura3,0.0
22,20150702 PQ 6,15,,ura3,0.0
23,20150702 PQ 6,14,,ura3,0.0
