,plate,number,M NaCl,Strain,mM PQ
0,20150630 PQ 5,130,,ura3,0.333
1,20150630 PQ 5,127,,ura3,0.333
2,20150630 PQ 5,132,,ura3,0.333
3,20150630 PQ 5,137,,ura3,0.333
4,20150630 PQ 5,135,,ura3,0.333
5,20150630 PQ 5,2,,ura3,0.0
6,20150630 PQ 5,6,,ura3,0.0
7,20150630 PQ 5,136,,ura3,0.333
8,20150630 PQ 5,4,,ura3,0.0
9,20150630 PQ 5,10,,ura3,0.0
10,20150630 PQ 5,128,,ura3,0.333
11,20150630 PQ 5,133,,ura3,0.333
12,20150630 PQ 5,1,,ura3,0.0
13,20150630 PQ 5,131,,ura3,0.333
14,20150630 PQ 5,129,,ura3,0.333
15,20150630 PQ 5,5,,ura3,0.0
16,20150630 PQ 5,134,,ura3,0.333
17,20150630 PQ 5,126,,ura3,0.333
18,20150630 PQ 5,11,,ura3,0.0
19,20150630 PQ 5,8,,ura3,0.0
20,20150630 PQ 5,12,,ura3,0.0
21,20150630 PQ 5,7,,ura3,0.0
22,20150630 PQ 5,3,,ura3,0.0
23,20150630 PQ 5,13,,ura3,0.0
