time,0,1,2,3,4,5,6,7,8,9,10,11,12,13,14,15,16,17,18,19,20,21,22,23
2.5,-0.0274961289293,-0.0477543480196,-0.0769006936791,-0.086997140678,-0.0569399068218,0.128568424621,-0.0129965592342,0.00882918034681,-0.0622539177147,0.0226349798718,-0.0569399068218,-0.106648037073,-0.0274961289293,-0.0916976956072,-0.0333990550425,-0.106648037073,-0.0274961289293,-0.102263897331,-0.0622539177147,-0.0569399068218,-0.102263897331,0.0155725929626,-0.0421429048937,-0.0916976956072
4.0,0.0435869691322,0.0363099167689,-0.0333990550425,-0.0129965592342,0.00135873374289,0.215280057814,0.0710677055543,0.0632769643692,0.00882918034681,0.115744384263,0.0155725929626,-0.0477543480196,0.0435869691322,-0.0333990550425,0.0363099167689,-0.0477543480196,0.0435869691322,-0.0274961289293,0.00882918034681,0.00135873374289,-0.0421429048937,0.111331575768,0.0155725929626,-0.0333990550425
5.5,0.111331575768,0.102805328556,0.0363099167689,0.0573927686572,0.0846142373922,0.308389462206,0.150502173049,0.15387951315,0.0897491757304,0.215280057814,0.0846142373922,0.0363099167689,0.111331575768,0.0498564486069,0.128568424621,0.0498564486069,0.124506964516,0.0435869691322,0.115744384263,0.0710677055543,0.0435869691322,0.176037265156,0.0980347531546,0.0498564486069
7.0,0.213511970574,0.178754181789,0.102805328556,0.163326213406,0.188637301935,0.395852303456,0.2500378466,0.250903967545,0.166370457333,0.297074148978,0.188637301935,0.128568424621,0.213511970574,0.15387951315,0.22725269948,0.128568424621,0.237965014299,0.137563117341,0.215280057814,0.176037265156,0.137563117341,0.28566175633,0.201128246119,0.14127947637
8.5,0.343147250991,0.285669385706,0.22725269948,0.28566175633,0.320427174491,0.508061807042,0.38754137035,0.395852303456,0.297074148978,0.416913918984,0.331831937763,0.262585772593,0.343147250991,0.285669385706,0.363671897707,0.239126799769,0.376570252529,0.2500378466,0.363671897707,0.297343561378,0.262010488266,0.38754137035,0.36551506402,0.285669385706
10.0,0.472430267936,0.416913918984,0.330757275234,0.451671707769,0.398429686492,0.657117616437,0.523056341006,0.612170210383,0.45813658171,0.556316975649,0.503018587769,0.468260798984,0.462088323715,0.498214021086,0.58451386748,0.427330534929,0.523056341006,0.376570252529,0.62127241749,0.430610092241,0.398429686492,0.523056341006,0.532971809871,0.488298552221
11.5,0.581551990316,0.498214021086,0.447940814605,0.591074764435,0.513072252433,0.734654216908,0.682997253876,0.775995012289,0.612170210383,0.62127241749,0.628549469853,0.64823946509,0.581551990316,0.674711676452,0.767821080843,0.612170210383,0.656030206275,0.513072252433,0.775995012289,0.637767999883,0.532971809871,0.600535093684,0.665075345878,0.683428893553
13.0,0.718186682338,0.63930634032,0.58451386748,0.726851543465,0.619271656265,0.885818290241,0.73546467377,0.893351962927,0.759600574038,0.743017689842,0.760999765877,0.79220523947,0.709469465237,0.808235349289,0.893351962927,0.700706884984,0.777775478628,0.665075345878,0.915719775955,0.73546467377,0.682997253876,0.682997253876,0.794358362823,0.808235349289
14.5,0.802578869628,0.79220523947,0.726241977092,0.85094189119,0.752538187129,1.01574859429,0.85094189119,0.973725379391,0.862978313883,0.908302304393,0.858847089275,0.893351962927,0.818880681957,0.915719775955,0.987869561711,0.816184102404,0.874528711507,0.78609074684,1.00187641971,0.818880681957,0.802578869628,0.835000347321,0.842993138074,0.878245070537
16.0,0.913002859322,0.915719775955,0.870631886427,0.920576079027,0.866709207048,1.12856842462,0.950477564741,1.0962920216,1.01574859429,1.00882918035,0.943060093178,1.03630991677,0.920576079027,1.02263497987,1.0962920216,0.973725379391,0.965199070447,0.842993138074,1.10280532856,0.928109751712,0.890041710879,0.890041710879,0.950477564741,1.01574859429
17.5,1.00135873374,1.07657378698,1.02263497987,1.00848316818,0.965199070447,1.26839139427,1.03663420849,1.24502740121,1.17257560686,1.17257560686,1.05050638307,1.20925627019,1.04358696913,1.21528005781,1.22127879844,1.12217065342,1.0642464397,0.935604288259,1.25675669379,0.987003440766,0.957857095106,0.99419894217,1.05050638307,1.1971327111
19.0,1.08461423739,1.20925627019,1.1475932503,1.11133157577,1.0642464397,1.39585230346,1.13104981038,1.41167727062,1.27993301616,1.27993301616,1.15050217305,1.36908539389,1.12450696452,1.36908539389,1.3473084515,1.28566938571,1.16332621341,1.02964777817,1.41167727062,1.07785687122,1.04358696913,1.07106770555,1.15050217305,1.39585230346
20.5,1.22579030035,1.33075727523,1.24502740121,1.24401405897,1.18235103909,1.51296060645,1.26201048827,1.55156344568,1.48331514471,1.37447865266,1.29734356138,1.56105489466,1.29151448258,1.58451386748,1.51296060645,1.45813658171,1.31469080494,1.15050217305,1.60759748059,1.18863730194,1.16332621341,1.17603726516,1.32614082569,1.60759748059
22.0,1.31469080494,1.42733053493,1.32519774989,1.39842968649,1.2500378466,1.58916023234,1.35995553868,1.75133295805,1.70499424339,1.45813658171,1.44117933395,1.71353092534,1.35995553868,1.73045422838,1.65268537012,1.6437798169,1.45167170777,1.2500378466,1.8122152002,1.34314725099,1.28566175633,1.2500378466,1.46208832371,1.75547268842
23.5,1.43590439191,1.49326480511,1.37985182476,1.5280225939,1.33750068785,1.65268537012,1.48269860339,1.8161841024,1.80424448909,1.51296060645,1.57196594149,1.80024255854,1.4464350594,1.83977092272,1.75133295805,1.75960057404,1.57196594149,1.39842968649,1.90457921835,1.47757357121,1.43061009224,1.34314725099,1.63776799988,1.88581829024
25.0,1.47757357121,1.5751760029,1.41691391898,1.65603020628,1.40384318268,1.72201739123,1.52305634101,1.87063188643,1.84366483883,1.57985249011,1.66507534588,1.86297831388,1.45688941704,1.91941425951,1.82014211597,1.83195141826,1.62391802112,1.51307225243,1.98434649515,1.58155199032,1.50301858777,1.39842968649,1.60053509368,1.91941425951
26.5,1.54771839524,1.6030102111,1.45813658171,1.74402668727,1.44117933395,1.77191383548,1.56714892519,1.89335196293,1.91571977596,1.61217021038,1.75253818713,1.93774608229,1.46208832371,1.99488998939,1.88581829024,1.90084649947,1.67853760569,1.56714892519,2.03290331533,1.70509102473,1.60993379169,1.45688941704,1.74402668727,2.04648172183
28.0,1.62391802112,1.67471167645,1.49326480511,1.77359980266,1.50301858777,1.85913624759,1.65603020628,1.93044128166,1.97016755998,1.70499424339,1.77777547863,1.95944115338,1.54771839524,2.00882918035,1.96302549073,1.91571977596,1.73546467377,1.64692799917,2.10605098806,1.74402668727,1.64692799917,1.54771839524,1.81482246538,2.03630991677
29.5,1.65603020628,1.70499424339,1.51784282783,1.83500034732,1.51807293349,1.85913624759,1.70509102473,1.93044128166,2.01574859429,1.72624197709,1.83900227788,2.03630991677,1.57196594149,2.0565823118,1.97016755998,2.04985644861,1.79435836282,1.68744315891,2.12537308546,1.86278350383,1.68744315891,1.57676692775,1.85884708928,2.07987893171
31.0,1.68299725388,1.74301768984,1.59379168107,1.86278350383,1.62854946985,1.93409830527,1.72252561806,1.94138465935,2.01229303565,1.7800646766,1.87452871151,2.02606588527,1.65603020628,2.09955235076,1.97727444647,1.98081480418,1.81482246538,1.76099976588,2.1475932503,1.87062425705,1.74402668727,1.69187540522,1.89004171088,2.13811219729
32.5,1.66055986476,1.78816972623,1.58451386748,1.89389403637,1.62854946985,1.94501408275,1.74402668727,1.97016755998,2.09955235076,1.78816972623,1.90156796426,2.0962920216,1.70069925561,2.15701240264,1.98081480418,2.08974917573,1.82292751502,1.77777547863,2.1694763682,1.92434783292,1.76521201716,1.70509102473,1.93186188657,2.16637045733
34.0,1.68744315891,1.80424448909,1.59840830914,1.90538967521,1.64692799917,1.97727444647,1.79435836282,1.98434649515,2.08317652181,1.79220523947,1.90156796426,2.0962920216,1.72685154347,2.14127947637,2.00535698844,2.04648172183,1.84299313807,1.76941200569,2.20017316542,1.89389403637,1.76941200569,1.71818668234,1.95047756474,2.20320722551
35.5,1.73116453634,1.84754827331,1.58916023234,1.95785709511,1.64692799917,2.00535698844,1.84299313807,1.97727444647,2.09955235076,1.82408930049,1.96519907045,2.12856842462,1.77359980266,2.20925627019,2.03290331533,2.08646659174,1.8823060621,1.7984744713,2.23912679977,1.9541720483,1.78609074684,1.73116453634,1.97977187153,2.25090396754
37.0,1.75677518002,1.86681017547,1.67907686901,1.91300285932,1.72685154347,2.01229303565,1.85884708928,1.96660094496,2.07657378698,1.80024255854,1.91300285932,2.06994069465,1.82292751502,2.15701240264,1.99838743363,2.04985644861,1.89773610267,1.77777547863,2.21528005781,1.94677359598,1.77777547863,1.77359980266,1.97977187153,2.20925627019
38.5,1.78609074684,1.89710409779,1.66594146682,1.93933700714,1.70509102473,2.04309908243,1.92810975171,1.97016755998,2.08317652181,1.8161841024,1.94306009318,2.12537308546,1.85489990476,2.20623491821,2.03290331533,2.0962920216,1.95047756474,1.82292751502,2.26258577259,1.97977187153,1.83500034732,1.78609074684,2.04358696913,2.22426884104
40.0,1.82292751502,1.88959004413,1.65268537012,1.96153275325,1.7138346578,2.06661267693,1.96153275325,1.97016755998,2.08317652181,1.78816972623,1.97250387107,2.08646659174,1.90538967521,2.21227130794,2.03290331533,2.08974917573,1.99778327952,1.88617907125,2.25967417717,1.93186188657,1.85489990476,1.78193910357,1.99419894217,2.22127879844
41.5,1.80257886963,1.90830230439,1.65268537012,1.97977187153,1.70069925561,2.08317652181,1.97614244813,1.96660094496,2.08974917573,1.80823534929,1.99060567745,2.0565823118,1.93560428826,2.20017316542,2.06994069465,2.07657378698,2.0226273505,1.89389403637,2.25967417717,1.94677359598,1.89004171088,1.78193910357,2.02964777817,2.21828254598
43.0,1.84697298899,1.96302549073,1.70070688498,2.00848316818,1.74828871413,2.10280532856,1.99778327952,1.96660094496,2.09955235076,1.83977092272,2.02614183467,2.03630991677,1.96519907045,2.20623491821,2.03970849323,2.07987893171,2.05739276866,1.93933700714,2.24796867652,1.96153275325,1.92810975171,1.85489990476,2.04705082444,2.20623491821
44.5,1.88617907125,1.95944115338,1.73465421691,2.04705082444,1.78193910357,2.16013850362,2.07106770555,1.98786956171,2.13811219729,1.8820366497,2.05395368469,2.06661267693,2.0226273505,2.21828254598,2.07326105294,2.10280532856,2.09469131008,2.0226273505,2.28280405201,1.98700344077,1.96885609406,1.86278350383,2.03314522241,2.18797271182
46.0,1.86278350383,1.96302549073,1.72624197709,2.05739276866,1.74402668727,2.11574438426,2.04705082444,1.98786956171,2.08974917573,1.87824507054,2.05395368469,2.06661267693,2.02614183467,2.17566820192,2.0565823118,2.0565823118,2.11463672049,2.01203223526,2.27128546754,1.97614244813,1.97250387107,1.83500034732,2.00492534876,2.16637045733
47.5,1.9541720483,1.99138404589,1.73884201387,2.11133157577,1.74402668727,2.15701240264,2.11793431059,2.01919589591,2.12217065342,1.89335196293,2.11463672049,2.08317652181,2.04358696913,2.20623491821,2.10280532856,2.10280532856,2.19177019142,2.03663420849,2.30556894314,2.04011477723,2.00848316818,1.83098728481,2.09134010058,2.1971327111
