,plate,number,M NaCl,Strain,mM PQ
0,20161010_PQ_osmo,30,4.2,ura3,0.333
1,20161010_PQ_osmo,87,4.2,ura3,0.0
2,20161010_PQ_osmo,97,4.2,ura3,0.0
3,20161010_PQ_osmo,95,4.2,ura3,0.0
4,20161010_PQ_osmo,88,4.2,ura3,0.0
5,20161010_PQ_osmo,91,4.2,ura3,0.0
6,20161010_PQ_osmo,27,4.2,ura3,0.333
7,20161010_PQ_osmo,98,4.2,ura3,0.0
8,20161010_PQ_osmo,28,4.2,ura3,0.333
9,20161010_PQ_osmo,29,4.2,ura3,0.333
10,20161010_PQ_osmo,96,4.2,ura3,0.0
11,20161010_PQ_osmo,31,4.2,ura3,0.333
12,20161010_PQ_osmo,32,4.2,ura3,0.333
13,20161010_PQ_osmo,33,4.2,ura3,0.333
14,20161010_PQ_osmo,34,4.2,ura3,0.333
15,20161010_PQ_osmo,35,4.2,ura3,0.333
16,20161010_PQ_osmo,36,4.2,ura3,0.333
17,20161010_PQ_osmo,37,4.2,ura3,0.333
18,20161010_PQ_osmo,89,4.2,ura3,0.0
19,20161010_PQ_osmo,38,4.2,ura3,0.333
20,20161010_PQ_osmo,90,4.2,ura3,0.0
21,20161010_PQ_osmo,92,4.2,ura3,0.0
22,20161010_PQ_osmo,188,4.2,ura3,0.0
23,20161010_PQ_osmo,189,4.2,ura3,0.0
24,20161010_PQ_osmo,93,4.2,ura3,0.0
25,20161010_PQ_osmo,190,4.2,ura3,0.0
26,20161010_PQ_osmo,191,4.2,ura3,0.0
27,20161010_PQ_osmo,192,4.2,ura3,0.0
28,20161010_PQ_osmo,193,4.2,ura3,0.0
29,20161010_PQ_osmo,194,4.2,ura3,0.0
30,20161010_PQ_osmo,195,4.2,ura3,0.0
31,20161010_PQ_osmo,94,4.2,ura3,0.0
32,20161010_PQ_osmo,196,4.2,ura3,0.0
33,20161010_PQ_osmo,197,4.2,ura3,0.0
34,20161010_PQ_osmo,198,4.2,ura3,0.0
35,20161010_PQ_osmo,199,4.2,ura3,0.0
